{
    "KPlugin": {
        "Authors": [
            {
                "Name": "Petros Siligkounas",
                "Name[ca@valencia]": "Petros Siligkounas",
                "Name[ca]": "Petros Siligkounas",
                "Name[cs]": "Petros Siligkounas",
                "Name[de]": "Petros Siligkounas",
                "Name[en_GB]": "Petros Siligkounas",
                "Name[es]": "Petros Siligkounas",
                "Name[et]": "Petros Siligkounas",
                "Name[fr]": "Petros Siligkounas",
                "Name[gl]": "Petros Siligkounas",
                "Name[it]": "Petros Siligkounas",
                "Name[nl]": "Petros Siligkounas",
                "Name[nn]": "Petros Siligkounas",
                "Name[pl]": "Petros Siligkounas",
                "Name[pt]": "Petros Siligkounas",
                "Name[pt_BR]": "Petros Siligkounas",
                "Name[ru]": "Petros Siligkounas",
                "Name[sk]": "Petros Siligkounas",
                "Name[sl]": "Petros Siligkounas",
                "Name[sv]": "Petros Siligkounas",
                "Name[tr]": "Petros Siligkounas",
                "Name[uk]": "Petros Siligkounas",
                "Name[x-test]": "xxPetros Siligkounasxx",
                "Name[zh_CN]": "Petros Siligkounas"
            }
        ],
        "Category": "Utilities",
        "Description": "Output the assembly of the source code.",
        "Icon": "system-run",
        "Id": "kdevassemblyoutput",
        "License": "GPL",
        "Name": "Assembly Output",
        "Name[el]": "Εμφάνιση assembly κώδικα",
        "Name[en_GB]": "Assembly Output",
        ]
    },
    "X-KDevelop-Category": "Global",
    "X-KDevelop-IRequired": [
        "org.kdevelop.IOutputView"
    ],
    "X-KDevelop-Interfaces": [
        "org.kdevelop.IPlugin"
    ],
    "X-KDevelop-Mode": "GUI"
}
